{
  "app-id": "nl.brixit.wiremapper",
  "runtime": "org.gnome.Platform",
  "runtime-version": "3.38",
  "sdk": "org.gnome.Sdk",
  "command": "wiremapper",
  "finish-args": [
    "--socket=wayland",
    "--socket=fallback-x11",
    "--share=ipc",
    "--system-talk-name=org.bluez",
    "--allow=bluetooth",
    "--share=network"
  ],
  "modules": [
    "python3-deps.json",
    {
      "name": "libhandy",
      "buildsystem": "meson",
      "config-opts": [
        "-Dprofiling=false",
        "-Dintrospection=enabled",
        "-Dgtk_doc=false",
        "-Dtests=false",
        "-Dexamples=false",
        "-Dvapi=false",
        "-Dglade_catalog=disabled"
      ],
      "sources": [
        {
          "type": "git",
          "url": "https://gitlab.gnome.org/GNOME/libhandy.git",
          "tag": "v0.0.13",
          "commit": "7a193d7692c9c76a1a94f17c4d30b585f77d177c"
        }
      ]
    },
    "wiremapper.json",
    {
      "name": "desktop-files",
      "buildsystem": "simple",
      "build-commands": [
        "install -D nl.brixit.wiremapper.desktop /app/share/applications/nl.brixit.wiremapper.desktop",
        "install -D nl.brixit.wiremapper.svg /app/share/icons/hicolor/scalable/apps/nl.brixit.wiremapper.svg",
        "install -D nl.brixit.wiremapper.metainfo.xml /app/share/metainfo/nl.brixit.wiremapper.metainfo.xml",
        "install -D nl.brixit.wiremapper.gschema.xml /app/share/glib-2.0/schemas/nl.brixit.wiremapper.gschema.xml",
        "glib-compile-schemas /app/share/glib-2.0/schemas",
        "rm /app/share/glib-2.0/schemas/nl.brixit.wiremapper.gschema.xml"
      ],
      "sources": [
        {
          "type": "file",
          "url": "https://gitlab.com/MartijnBraam/wiremapper/-/raw/26b95535001fe9b398b2b09757a30a2eeb8a9ccd/data/icon.svg",
          "dest-filename": "nl.brixit.wiremapper.svg",
          "sha256": "7ea63903464f4186a99441fe370f7c08ad67d2d81ef7915aeeee6b1542b0d58f"
        },
        {
          "type": "file",
          "url": "https://gitlab.com/MartijnBraam/wiremapper/-/raw/26b95535001fe9b398b2b09757a30a2eeb8a9ccd/data/nl.brixit.wiremapper.desktop",
          "dest-filename": "nl.brixit.wiremapper.desktop",
          "sha256": "ace30d48e39a6d174d7867b5889862845da0029b858119a0255a86b6fc6a0fc4"
        },
        {
          "type": "file",
          "url": "https://gitlab.com/MartijnBraam/wiremapper/-/raw/d960c29c5abb96ea03a88d1051152c9d061d5a67/data/nl.brixit.wiremapper.metainfo.xml",
          "dest-filename": "nl.brixit.wiremapper.metainfo.xml",
          "sha256": "690db46794415499fda1c484663b310617cdd28f59024f2d270cb60b91e2fee6"
        },
        {
          "type": "file",
          "url": "https://gitlab.com/MartijnBraam/wiremapper/-/raw/d960c29c5abb96ea03a88d1051152c9d061d5a67/data/nl.brixit.wiremapper.gschema.xml",
          "dest-filename": "nl.brixit.wiremapper.gschema.xml",
          "sha256": "73c5d846b7b38c58b8643642a392e4bd77a4e4ab642d863cab86bf60d86a5ae9"
        }
      ]
    }
  ]
}
